{
    "menus": [
        {
            "section": "Resources",
            "items": [
                {
                    "title": "Dashboard",
                    "url": "\/admin"
                },
                {
                    "title": "Users",
                    "url": "\/admin\/users"
                },
                {
                    "title": "Roles",
                    "url": "\/admin\/roles",
                    "roles": [
                        "Admin"
                    ]
                },
                {
                    "title": "Activity Logs",
                    "url": "\/admin\/activitylogs",
                    "roles": [
                        "Admin"
                    ]
                },
                {
                    "title": "Company",
                    "url": "\/admin\/company",
                    "roles": [
                        "Admin"
                    ]
                },
                {
                    "title": "Company Units",
                    "url": "\/admin\/company-units",
                    "roles": [
                        "Admin"
                    ]
                },
                {
                    "title": "Vacations\/Sick Leaves and other",
                    "url": "\/admin\/vacation"
                },
                {
                    "title": "Education",
                    "url": "\/admin\/education",
                    "roles": [
                        "Manager",
                        "Admin"
                    ]
                },
                {
                    "title": "Work Experience",
                    "url": "\/admin\/experience",
                    "roles": [
                        "Manager",
                        "Admin"
                    ]
                },
                {
                    "title": "Work Hours",
                    "url": "\/admin\/work-hours"
                },
                {
                    "title": "Work Hours Table",
                    "url": "\/admin\/work-hours\/table",
                    "roles": [
                        "Accountant",
                        "Manager",
                        "Admin"
                    ]
                },
                {
                    "title": "News",
                    "url": "\/admin\/news",
                    "roles": [
                        "Manager",
                        "Admin"
                    ]
                }
            ]
        }
    ]
}
